^E:\PROGRAMS\OPENGL\WINDOWS\DIRECTX 3D\D3D_BLUESCREEN\D3D_BLUESCREEN\DEBUG\D3D_BLUESCREEN.OBJ
E:\PROGRAMS\OPENGL\WINDOWS\DIRECTX 3D\D3D_BLUESCREEN\DEBUG\D3D_BLUESCREEN.ILK
E:\PROGRAMS\OPENGL\WINDOWS\DIRECTX 3D\D3D_BLUESCREEN\DEBUG\D3D_BLUESCREEN.EXE
E:\PROGRAMS\OPENGL\WINDOWS\DIRECTX 3D\D3D_BLUESCREEN\DEBUG\D3D_BLUESCREEN.PDB
^E:\PROGRAMS\OPENGL\WINDOWS\DIRECTX 3D\D3D_ORTHO\D3D_BLUESCREEN\DEBUG\D3D_BLUESCREEN.OBJ
E:\PROGRAMS\OPENGL\WINDOWS\DIRECTX 3D\D3D_ORTHO\DEBUG\D3D_BLUESCREEN.ILK
E:\PROGRAMS\OPENGL\WINDOWS\DIRECTX 3D\D3D_ORTHO\DEBUG\D3D_BLUESCREEN.EXE
E:\PROGRAMS\OPENGL\WINDOWS\DIRECTX 3D\D3D_ORTHO\DEBUG\D3D_BLUESCREEN.PDB
