^E:\PROGRAMS\OPENGL\WINDOWS\DIRECTX 3D\2DROTATION\D3D_BLUESCREEN\2D_ROTATION.CPP
E:\PROGRAMS\OPENGL\WINDOWS\DIRECTX 3D\2DROTATION\D3D_BLUESCREEN\DEBUG\VC140.PDB
E:\PROGRAMS\OPENGL\WINDOWS\DIRECTX 3D\2DROTATION\D3D_BLUESCREEN\DEBUG\VC140.IDB
E:\PROGRAMS\OPENGL\WINDOWS\DIRECTX 3D\2DROTATION\D3D_BLUESCREEN\DEBUG\2D_ROTATION.OBJ
^E:\PROGRAMS\OPENGL\WINDOWS\DIRECTX 3D\2SHAPES\D3D_BLUESCREEN\2SHAPES.CPP
E:\PROGRAMS\OPENGL\WINDOWS\DIRECTX 3D\2SHAPES\D3D_BLUESCREEN\DEBUG\VC140.PDB
E:\PROGRAMS\OPENGL\WINDOWS\DIRECTX 3D\2SHAPES\D3D_BLUESCREEN\DEBUG\VC140.IDB
E:\PROGRAMS\OPENGL\WINDOWS\DIRECTX 3D\2SHAPES\D3D_BLUESCREEN\DEBUG\2SHAPES.OBJ
