^E:\PROGRAMS\OPENGL\WINDOWS\DIRECTX 3D\LIGHTS\3LIGHTS\D3D_BLUESCREEN\3_LIGHTS.CPP
E:\PROGRAMS\OPENGL\WINDOWS\DIRECTX 3D\LIGHTS\3LIGHTS\D3D_BLUESCREEN\DEBUG\VC140.PDB
E:\PROGRAMS\OPENGL\WINDOWS\DIRECTX 3D\LIGHTS\3LIGHTS\D3D_BLUESCREEN\DEBUG\VC140.IDB
E:\PROGRAMS\OPENGL\WINDOWS\DIRECTX 3D\LIGHTS\3LIGHTS\D3D_BLUESCREEN\DEBUG\3_LIGHTS.OBJ
