^E:\PROGRAMS\OPENGL\WINDOWS\DIRECTX 3D\D3D_ORTHO\D3D_BLUESCREEN\D3D_BLUESCREEN.CPP
E:\PROGRAMS\OPENGL\WINDOWS\DIRECTX 3D\D3D_ORTHO\D3D_BLUESCREEN\DEBUG\VC140.PDB
E:\PROGRAMS\OPENGL\WINDOWS\DIRECTX 3D\D3D_ORTHO\D3D_BLUESCREEN\DEBUG\VC140.IDB
E:\PROGRAMS\OPENGL\WINDOWS\DIRECTX 3D\D3D_ORTHO\D3D_BLUESCREEN\DEBUG\D3D_BLUESCREEN.OBJ
^E:\PROGRAMS\OPENGL\WINDOWS\DIRECTX 3D\D3D_ORTHO\D3D_BLUESCREEN\D3D_ORTHO_TRIANGLE.CPP
E:\PROGRAMS\OPENGL\WINDOWS\DIRECTX 3D\D3D_ORTHO\D3D_BLUESCREEN\DEBUG\VC140.PDB
E:\PROGRAMS\OPENGL\WINDOWS\DIRECTX 3D\D3D_ORTHO\D3D_BLUESCREEN\DEBUG\VC140.IDB
E:\PROGRAMS\OPENGL\WINDOWS\DIRECTX 3D\D3D_ORTHO\D3D_BLUESCREEN\DEBUG\D3D_ORTHO_TRIANGLE.OBJ
^E:\PROGRAMS\OPENGL\WINDOWS\DIRECTX 3D\D3D_PERSPECTIVE\D3D_BLUESCREEN\D3D_ORTHO_TRIANGLE.CPP
E:\PROGRAMS\OPENGL\WINDOWS\DIRECTX 3D\D3D_PERSPECTIVE\D3D_BLUESCREEN\DEBUG\VC140.PDB
E:\PROGRAMS\OPENGL\WINDOWS\DIRECTX 3D\D3D_PERSPECTIVE\D3D_BLUESCREEN\DEBUG\VC140.IDB
E:\PROGRAMS\OPENGL\WINDOWS\DIRECTX 3D\D3D_PERSPECTIVE\D3D_BLUESCREEN\DEBUG\D3D_ORTHO_TRIANGLE.OBJ
^E:\PROGRAMS\OPENGL\WINDOWS\DIRECTX 3D\3DROTATION\D3D_BLUESCREEN\D3D_ORTHO_TRIANGLE.CPP
E:\PROGRAMS\OPENGL\WINDOWS\DIRECTX 3D\3DROTATION\D3D_BLUESCREEN\DEBUG\VC140.PDB
E:\PROGRAMS\OPENGL\WINDOWS\DIRECTX 3D\3DROTATION\D3D_BLUESCREEN\DEBUG\VC140.IDB
E:\PROGRAMS\OPENGL\WINDOWS\DIRECTX 3D\3DROTATION\D3D_BLUESCREEN\DEBUG\D3D_ORTHO_TRIANGLE.OBJ
