^E:\PROGRAMS\OPENGL\WINDOWS\DIRECTX 3D\2DROTATION\D3D_BLUESCREEN\2D_ROTATION.CPP
/c /ZI /nologo /W3 /WX- /sdl /Od /Oy- /D WIN32 /D _DEBUG /D _WINDOWS /D _UNICODE /D UNICODE /Gm /EHsc /RTC1 /MDd /GS /fp:precise /Zc:wchar_t /Zc:forScope /Zc:inline /Fo"DEBUG\\" /Fd"DEBUG\VC140.PDB" /Gd /TP /analyze- E:\PROGRAMS\OPENGL\WINDOWS\DIRECTX 3D\2DROTATION\D3D_BLUESCREEN\2D_ROTATION.CPP
^E:\PROGRAMS\OPENGL\WINDOWS\DIRECTX 3D\2SHAPES\D3D_BLUESCREEN\2SHAPES.CPP
/c /ZI /nologo /W3 /WX- /sdl /Od /Oy- /D WIN32 /D _DEBUG /D _WINDOWS /D _UNICODE /D UNICODE /Gm /EHsc /RTC1 /MDd /GS /fp:precise /Zc:wchar_t /Zc:forScope /Zc:inline /Fo"DEBUG\\" /Fd"DEBUG\VC140.PDB" /Gd /TP /analyze- E:\PROGRAMS\OPENGL\WINDOWS\DIRECTX 3D\2SHAPES\D3D_BLUESCREEN\2SHAPES.CPP
