^E:\PROGRAMS\OPENGL\WINDOWS\DIRECTX 3D\2DROTATION\D3D_BLUESCREEN\DEBUG\2D_ROTATION.OBJ
/OUT:"E:\PROGRAMS\OPENGL\WINDOWS\DIRECTX 3D\2DROTATION\DEBUG\2D_ROTATION.EXE" /INCREMENTAL /NOLOGO KERNEL32.LIB USER32.LIB GDI32.LIB WINSPOOL.LIB COMDLG32.LIB ADVAPI32.LIB SHELL32.LIB OLE32.LIB OLEAUT32.LIB UUID.LIB ODBC32.LIB ODBCCP32.LIB /MANIFEST /MANIFESTUAC:"level='asInvoker' uiAccess='false'" /manifest:embed /DEBUG /PDB:"E:\PROGRAMS\OPENGL\WINDOWS\DIRECTX 3D\2DROTATION\DEBUG\2D_ROTATION.PDB" /SUBSYSTEM:WINDOWS /TLBID:1 /DYNAMICBASE /NXCOMPAT /IMPLIB:"E:\PROGRAMS\OPENGL\WINDOWS\DIRECTX 3D\2DROTATION\DEBUG\2D_ROTATION.LIB" /MACHINE:X86 DEBUG\2D_ROTATION.OBJ
^E:\PROGRAMS\OPENGL\WINDOWS\DIRECTX 3D\2SHAPES\D3D_BLUESCREEN\DEBUG\2SHAPES.OBJ
/OUT:"E:\PROGRAMS\OPENGL\WINDOWS\DIRECTX 3D\2SHAPES\DEBUG\2D_ROTATION.EXE" /INCREMENTAL /NOLOGO KERNEL32.LIB USER32.LIB GDI32.LIB WINSPOOL.LIB COMDLG32.LIB ADVAPI32.LIB SHELL32.LIB OLE32.LIB OLEAUT32.LIB UUID.LIB ODBC32.LIB ODBCCP32.LIB /MANIFEST /MANIFESTUAC:"level='asInvoker' uiAccess='false'" /manifest:embed /DEBUG /PDB:"E:\PROGRAMS\OPENGL\WINDOWS\DIRECTX 3D\2SHAPES\DEBUG\2D_ROTATION.PDB" /SUBSYSTEM:WINDOWS /TLBID:1 /DYNAMICBASE /NXCOMPAT /IMPLIB:"E:\PROGRAMS\OPENGL\WINDOWS\DIRECTX 3D\2SHAPES\DEBUG\2D_ROTATION.LIB" /MACHINE:X86 DEBUG\2SHAPES.OBJ
