^E:\PROGRAMS\OPENGL\WINDOWS\DIRECTX 3D\D3D_BLUESCREEN\D3D_BLUESCREEN\DEBUG\D3D_BLUESCREEN.OBJ
/OUT:"E:\PROGRAMS\OPENGL\WINDOWS\DIRECTX 3D\D3D_BLUESCREEN\DEBUG\D3D_BLUESCREEN.EXE" /INCREMENTAL /NOLOGO KERNEL32.LIB USER32.LIB GDI32.LIB WINSPOOL.LIB COMDLG32.LIB ADVAPI32.LIB SHELL32.LIB OLE32.LIB OLEAUT32.LIB UUID.LIB ODBC32.LIB ODBCCP32.LIB /MANIFEST /MANIFESTUAC:"level='asInvoker' uiAccess='false'" /manifest:embed /DEBUG /PDB:"E:\PROGRAMS\OPENGL\WINDOWS\DIRECTX 3D\D3D_BLUESCREEN\DEBUG\D3D_BLUESCREEN.PDB" /SUBSYSTEM:WINDOWS /TLBID:1 /DYNAMICBASE /NXCOMPAT /IMPLIB:"E:\PROGRAMS\OPENGL\WINDOWS\DIRECTX 3D\D3D_BLUESCREEN\DEBUG\D3D_BLUESCREEN.LIB" /MACHINE:X86 DEBUG\D3D_BLUESCREEN.OBJ
^E:\PROGRAMS\OPENGL\WINDOWS\DIRECTX 3D\D3D_ORTHO\D3D_BLUESCREEN\DEBUG\D3D_BLUESCREEN.OBJ
/OUT:"E:\PROGRAMS\OPENGL\WINDOWS\DIRECTX 3D\D3D_ORTHO\DEBUG\D3D_BLUESCREEN.EXE" /INCREMENTAL /NOLOGO KERNEL32.LIB USER32.LIB GDI32.LIB WINSPOOL.LIB COMDLG32.LIB ADVAPI32.LIB SHELL32.LIB OLE32.LIB OLEAUT32.LIB UUID.LIB ODBC32.LIB ODBCCP32.LIB /MANIFEST /MANIFESTUAC:"level='asInvoker' uiAccess='false'" /manifest:embed /DEBUG /PDB:"E:\PROGRAMS\OPENGL\WINDOWS\DIRECTX 3D\D3D_ORTHO\DEBUG\D3D_BLUESCREEN.PDB" /SUBSYSTEM:WINDOWS /TLBID:1 /DYNAMICBASE /NXCOMPAT /IMPLIB:"E:\PROGRAMS\OPENGL\WINDOWS\DIRECTX 3D\D3D_ORTHO\DEBUG\D3D_BLUESCREEN.LIB" /MACHINE:X86 DEBUG\D3D_BLUESCREEN.OBJ
