^E:\PROGRAMS\OPENGL\WINDOWS\DIRECTX 3D\2DROTATION\D3D_BLUESCREEN\DEBUG\2D_ROTATION.OBJ
E:\PROGRAMS\OPENGL\WINDOWS\DIRECTX 3D\2DROTATION\DEBUG\2D_ROTATION.ILK
E:\PROGRAMS\OPENGL\WINDOWS\DIRECTX 3D\2DROTATION\DEBUG\2D_ROTATION.EXE
E:\PROGRAMS\OPENGL\WINDOWS\DIRECTX 3D\2DROTATION\DEBUG\2D_ROTATION.PDB
^E:\PROGRAMS\OPENGL\WINDOWS\DIRECTX 3D\2SHAPES\D3D_BLUESCREEN\DEBUG\2SHAPES.OBJ
E:\PROGRAMS\OPENGL\WINDOWS\DIRECTX 3D\2SHAPES\DEBUG\2D_ROTATION.ILK
E:\PROGRAMS\OPENGL\WINDOWS\DIRECTX 3D\2SHAPES\DEBUG\2D_ROTATION.EXE
E:\PROGRAMS\OPENGL\WINDOWS\DIRECTX 3D\2SHAPES\DEBUG\2D_ROTATION.PDB
