^E:\PROGRAMS\OPENGL\WINDOWS\DIRECTX 3D\TEXTURE\CHECKERBOARD\D3D_BLUESCREEN\DEBUG\CHECKER_BOARD.OBJ
E:\PROGRAMS\OPENGL\WINDOWS\DIRECTX 3D\TEXTURE\CHECKERBOARD\DEBUG\CHECKER_BOARD.ILK
E:\PROGRAMS\OPENGL\WINDOWS\DIRECTX 3D\TEXTURE\CHECKERBOARD\DEBUG\CHECKER_BOARD.EXE
E:\PROGRAMS\OPENGL\WINDOWS\DIRECTX 3D\TEXTURE\CHECKERBOARD\DEBUG\CHECKER_BOARD.PDB
