^E:\PROGRAMS\OPENGL\WINDOWS\DIRECTX 3D\TEXTURE\2D_TEXTURE\D3D_BLUESCREEN\2D_TEXTURE.CPP
E:\PROGRAMS\OPENGL\WINDOWS\DIRECTX 3D\TEXTURE\2D_TEXTURE\D3D_BLUESCREEN\DEBUG\VC140.PDB
E:\PROGRAMS\OPENGL\WINDOWS\DIRECTX 3D\TEXTURE\2D_TEXTURE\D3D_BLUESCREEN\DEBUG\VC140.IDB
E:\PROGRAMS\OPENGL\WINDOWS\DIRECTX 3D\TEXTURE\2D_TEXTURE\D3D_BLUESCREEN\DEBUG\2D_TEXTURE.OBJ
^E:\PROGRAMS\OPENGL\WINDOWS\DIRECTX 3D\TEXTURE\TOGGLESMILEY\D3D_BLUESCREEN\2D_TEXTURE.CPP
E:\PROGRAMS\OPENGL\WINDOWS\DIRECTX 3D\TEXTURE\TOGGLESMILEY\D3D_BLUESCREEN\DEBUG\VC140.PDB
E:\PROGRAMS\OPENGL\WINDOWS\DIRECTX 3D\TEXTURE\TOGGLESMILEY\D3D_BLUESCREEN\DEBUG\VC140.IDB
E:\PROGRAMS\OPENGL\WINDOWS\DIRECTX 3D\TEXTURE\TOGGLESMILEY\D3D_BLUESCREEN\DEBUG\2D_TEXTURE.OBJ
