^E:\PROGRAMS\OPENGL\WINDOWS\DIRECTX 3D\TEXTURE\2D_TEXTURE\D3D_BLUESCREEN\DEBUG\2D_TEXTURE.OBJ
/OUT:"E:\PROGRAMS\OPENGL\WINDOWS\DIRECTX 3D\TEXTURE\2D_TEXTURE\DEBUG\2D_TEXTURE.EXE" /INCREMENTAL /NOLOGO KERNEL32.LIB USER32.LIB GDI32.LIB WINSPOOL.LIB COMDLG32.LIB ADVAPI32.LIB SHELL32.LIB OLE32.LIB OLEAUT32.LIB UUID.LIB ODBC32.LIB ODBCCP32.LIB /MANIFEST /MANIFESTUAC:"level='asInvoker' uiAccess='false'" /manifest:embed /DEBUG /PDB:"E:\PROGRAMS\OPENGL\WINDOWS\DIRECTX 3D\TEXTURE\2D_TEXTURE\DEBUG\2D_TEXTURE.PDB" /SUBSYSTEM:WINDOWS /TLBID:1 /DYNAMICBASE /NXCOMPAT /IMPLIB:"E:\PROGRAMS\OPENGL\WINDOWS\DIRECTX 3D\TEXTURE\2D_TEXTURE\DEBUG\2D_TEXTURE.LIB" /MACHINE:X86 DEBUG\2D_TEXTURE.OBJ
^E:\PROGRAMS\OPENGL\WINDOWS\DIRECTX 3D\TEXTURE\TOGGLESMILEY\D3D_BLUESCREEN\DEBUG\2D_TEXTURE.OBJ
/OUT:"E:\PROGRAMS\OPENGL\WINDOWS\DIRECTX 3D\TEXTURE\TOGGLESMILEY\DEBUG\2D_TEXTURE.EXE" /INCREMENTAL /NOLOGO KERNEL32.LIB USER32.LIB GDI32.LIB WINSPOOL.LIB COMDLG32.LIB ADVAPI32.LIB SHELL32.LIB OLE32.LIB OLEAUT32.LIB UUID.LIB ODBC32.LIB ODBCCP32.LIB /MANIFEST /MANIFESTUAC:"level='asInvoker' uiAccess='false'" /manifest:embed /DEBUG /PDB:"E:\PROGRAMS\OPENGL\WINDOWS\DIRECTX 3D\TEXTURE\TOGGLESMILEY\DEBUG\2D_TEXTURE.PDB" /SUBSYSTEM:WINDOWS /TLBID:1 /DYNAMICBASE /NXCOMPAT /IMPLIB:"E:\PROGRAMS\OPENGL\WINDOWS\DIRECTX 3D\TEXTURE\TOGGLESMILEY\DEBUG\2D_TEXTURE.LIB" /MACHINE:X86 DEBUG\2D_TEXTURE.OBJ
