﻿C:\Program Files (x86)\MSBuild\Microsoft.Cpp\v4.0\V140\Microsoft.CppBuild.targets(392,5): warning MSB8028: The intermediate directory (Debug\) contains files shared from another project (2_LIGHTS.vcxproj, 3_LIGHTS.vcxproj, D3D_BLUESCREEN.vcxproj, D3D_ORTHOGRAPHIC_TRIANGLE.vcxproj).  This can lead to incorrect clean and rebuild behavior.
  24SPHERES.cpp
e:\programs\opengl\windows\directx 3d\lights\24 spheres\d3d_bluescreen\xnamath\xnamath.h(2908): warning C4838: conversion from 'unsigned int' to 'INT' requires a narrowing conversion
e:\programs\opengl\windows\directx 3d\lights\24 spheres\d3d_bluescreen\xnamath\xnamath.h(2909): warning C4838: conversion from 'unsigned int' to 'INT' requires a narrowing conversion
e:\programs\opengl\windows\directx 3d\lights\24 spheres\d3d_bluescreen\xnamath\xnamath.h(2910): warning C4838: conversion from 'unsigned int' to 'INT' requires a narrowing conversion
e:\programs\opengl\windows\directx 3d\lights\24 spheres\d3d_bluescreen\xnamath\xnamath.h(2911): warning C4838: conversion from 'unsigned int' to 'INT' requires a narrowing conversion
e:\programs\opengl\windows\directx 3d\lights\24 spheres\d3d_bluescreen\xnamath\xnamath.h(2912): warning C4838: conversion from 'unsigned int' to 'INT' requires a narrowing conversion
e:\programs\opengl\windows\directx 3d\lights\24 spheres\d3d_bluescreen\xnamath\xnamath.h(2913): warning C4838: conversion from 'unsigned int' to 'INT' requires a narrowing conversion
e:\programs\opengl\windows\directx 3d\lights\24 spheres\d3d_bluescreen\xnamath\xnamath.h(2914): warning C4838: conversion from 'unsigned int' to 'INT' requires a narrowing conversion
e:\programs\opengl\windows\directx 3d\lights\24 spheres\d3d_bluescreen\xnamath\xnamath.h(2935): warning C4838: conversion from 'unsigned int' to 'INT' requires a narrowing conversion
e:\programs\opengl\windows\directx 3d\lights\24 spheres\d3d_bluescreen\xnamath\xnamath.h(2936): warning C4838: conversion from 'unsigned int' to 'INT' requires a narrowing conversion
e:\programs\opengl\windows\directx 3d\lights\24 spheres\d3d_bluescreen\xnamath\xnamath.h(2937): warning C4838: conversion from 'unsigned int' to 'INT' requires a narrowing conversion
e:\programs\opengl\windows\directx 3d\lights\24 spheres\d3d_bluescreen\xnamath\xnamath.h(2940): warning C4838: conversion from 'unsigned int' to 'INT' requires a narrowing conversion
e:\programs\opengl\windows\directx 3d\lights\24 spheres\d3d_bluescreen\xnamath\xnamath.h(2941): warning C4838: conversion from 'unsigned int' to 'INT' requires a narrowing conversion
e:\programs\opengl\windows\directx 3d\lights\24 spheres\d3d_bluescreen\xnamath\xnamath.h(2944): warning C4838: conversion from 'unsigned int' to 'INT' requires a narrowing conversion
e:\programs\opengl\windows\directx 3d\lights\24 spheres\d3d_bluescreen\xnamath\xnamath.h(2948): warning C4838: conversion from 'unsigned int' to 'INT' requires a narrowing conversion
e:\programs\opengl\windows\directx 3d\lights\24 spheres\d3d_bluescreen\xnamath\xnamath.h(2958): warning C4838: conversion from 'unsigned int' to 'INT' requires a narrowing conversion
e:\programs\opengl\windows\directx 3d\lights\24 spheres\d3d_bluescreen\xnamath\xnamath.h(2959): warning C4838: conversion from 'unsigned int' to 'INT' requires a narrowing conversion
e:\programs\opengl\windows\directx 3d\lights\24 spheres\d3d_bluescreen\xnamath\xnamath.h(2961): warning C4838: conversion from 'unsigned int' to 'INT' requires a narrowing conversion
e:\programs\opengl\windows\directx 3d\lights\24 spheres\d3d_bluescreen\xnamath\xnamath.h(2962): warning C4838: conversion from 'unsigned int' to 'INT' requires a narrowing conversion
e:\programs\opengl\windows\directx 3d\lights\24 spheres\d3d_bluescreen\xnamath\xnamath.h(2963): warning C4838: conversion from 'unsigned int' to 'INT' requires a narrowing conversion
e:\programs\opengl\windows\directx 3d\lights\24 spheres\d3d_bluescreen\xnamath\xnamath.h(2973): warning C4838: conversion from 'unsigned int' to 'INT' requires a narrowing conversion
e:\programs\opengl\windows\directx 3d\lights\24 spheres\d3d_bluescreen\xnamath\xnamath.h(2974): warning C4838: conversion from 'unsigned int' to 'INT' requires a narrowing conversion
e:\programs\opengl\windows\directx 3d\lights\24 spheres\d3d_bluescreen\xnamath\xnamath.h(2975): warning C4838: conversion from 'unsigned int' to 'INT' requires a narrowing conversion
e:\programs\opengl\windows\directx 3d\lights\24 spheres\d3d_bluescreen\xnamath\xnamath.h(2976): warning C4838: conversion from 'unsigned int' to 'INT' requires a narrowing conversion
e:\programs\opengl\windows\directx 3d\lights\24 spheres\d3d_bluescreen\xnamath\xnamath.h(2977): warning C4838: conversion from 'unsigned int' to 'INT' requires a narrowing conversion
e:\programs\opengl\windows\directx 3d\lights\24 spheres\d3d_bluescreen\xnamath\xnamath.h(2978): warning C4838: conversion from 'unsigned int' to 'INT' requires a narrowing conversion
e:\programs\opengl\windows\directx 3d\lights\24 spheres\d3d_bluescreen\xnamath\xnamath.h(2988): warning C4838: conversion from 'unsigned int' to 'INT' requires a narrowing conversion
e:\programs\opengl\windows\directx 3d\lights\24 spheres\d3d_bluescreen\xnamath\xnamath.h(2989): warning C4838: conversion from 'unsigned int' to 'INT' requires a narrowing conversion
e:\programs\opengl\windows\directx 3d\lights\24 spheres\d3d_bluescreen\xnamath\xnamath.h(3000): warning C4838: conversion from 'unsigned int' to 'INT' requires a narrowing conversion
e:\programs\opengl\windows\directx 3d\lights\24 spheres\d3d_bluescreen\xnamath\xnamathconvert.inl(2522): warning C4838: conversion from 'unsigned int' to 'INT' requires a narrowing conversion
e:\programs\opengl\windows\directx 3d\lights\24 spheres\d3d_bluescreen\xnamath\xnamathconvert.inl(5120): warning C4838: conversion from 'unsigned int' to 'INT' requires a narrowing conversion
e:\programs\opengl\windows\directx 3d\lights\24 spheres\d3d_bluescreen\xnamath\xnamathconvert.inl(5174): warning C4838: conversion from 'unsigned int' to 'INT' requires a narrowing conversion
e:\programs\opengl\windows\directx 3d\lights\24 spheres\d3d_bluescreen\xnamath\xnamathconvert.inl(5236): warning C4838: conversion from 'unsigned int' to 'INT' requires a narrowing conversion
e:\programs\opengl\windows\directx 3d\lights\24 spheres\d3d_bluescreen\xnamath\xnamathconvert.inl(5304): warning C4838: conversion from 'unsigned int' to 'INT' requires a narrowing conversion
e:\programs\opengl\windows\directx 3d\lights\24 spheres\d3d_bluescreen\xnamath\xnamathconvert.inl(5367): warning C4838: conversion from 'unsigned int' to 'INT' requires a narrowing conversion
e:\programs\opengl\windows\directx 3d\lights\24 spheres\d3d_bluescreen\xnamath\xnamathconvert.inl(5429): warning C4838: conversion from 'unsigned int' to 'INT' requires a narrowing conversion
e:\programs\opengl\windows\directx 3d\lights\24 spheres\d3d_bluescreen\xnamath\xnamathvector.inl(1265): warning C4838: conversion from 'unsigned int' to 'INT' requires a narrowing conversion
e:\programs\opengl\windows\directx 3d\lights\24 spheres\d3d_bluescreen\xnamath\xnamathmisc.inl(514): warning C4838: conversion from 'unsigned int' to 'INT' requires a narrowing conversion
e:\programs\opengl\windows\directx 3d\lights\24 spheres\d3d_bluescreen\xnamath\xnamathmisc.inl(515): warning C4838: conversion from 'unsigned int' to 'INT' requires a narrowing conversion
e:\programs\opengl\windows\directx 3d\lights\24 spheres\d3d_bluescreen\24spheres.cpp(175): warning C4305: 'initializing': truncation from 'double' to 'float'
e:\programs\opengl\windows\directx 3d\lights\24 spheres\d3d_bluescreen\24spheres.cpp(1092): warning C4244: '=': conversion from 'double' to 'float', possible loss of data
e:\programs\opengl\windows\directx 3d\lights\24 spheres\d3d_bluescreen\24spheres.cpp(1093): warning C4244: '=': conversion from 'double' to 'float', possible loss of data
e:\programs\opengl\windows\directx 3d\lights\24 spheres\d3d_bluescreen\24spheres.cpp(1097): warning C4244: '=': conversion from 'double' to 'float', possible loss of data
e:\programs\opengl\windows\directx 3d\lights\24 spheres\d3d_bluescreen\24spheres.cpp(1099): warning C4244: '=': conversion from 'double' to 'float', possible loss of data
e:\programs\opengl\windows\directx 3d\lights\24 spheres\d3d_bluescreen\24spheres.cpp(1103): warning C4244: '=': conversion from 'double' to 'float', possible loss of data
e:\programs\opengl\windows\directx 3d\lights\24 spheres\d3d_bluescreen\24spheres.cpp(1104): warning C4244: '=': conversion from 'double' to 'float', possible loss of data
  D3D_BLUESCREEN.vcxproj -> E:\Programs\OpenGL\WINDOWS\DirectX 3D\Lights\24 Spheres\Debug\24SPHERES.exe
  D3D_BLUESCREEN.vcxproj -> E:\Programs\OpenGL\WINDOWS\DirectX 3D\Lights\24 Spheres\Debug\24SPHERES.pdb (Full PDB)
