^E:\PROGRAMS\OPENGL\WINDOWS\DIRECTX 3D\D3D_ORTHO\D3D_BLUESCREEN\DEBUG\D3D_ORTHO_TRIANGLE.OBJ
/OUT:"E:\PROGRAMS\OPENGL\WINDOWS\DIRECTX 3D\D3D_ORTHO\DEBUG\D3D_ORTHOGRAPHIC_TRIANGLE.EXE" /INCREMENTAL /NOLOGO KERNEL32.LIB USER32.LIB GDI32.LIB WINSPOOL.LIB COMDLG32.LIB ADVAPI32.LIB SHELL32.LIB OLE32.LIB OLEAUT32.LIB UUID.LIB ODBC32.LIB ODBCCP32.LIB /MANIFEST /MANIFESTUAC:"level='asInvoker' uiAccess='false'" /manifest:embed /DEBUG /PDB:"E:\PROGRAMS\OPENGL\WINDOWS\DIRECTX 3D\D3D_ORTHO\DEBUG\D3D_ORTHOGRAPHIC_TRIANGLE.PDB" /SUBSYSTEM:WINDOWS /TLBID:1 /DYNAMICBASE /NXCOMPAT /IMPLIB:"E:\PROGRAMS\OPENGL\WINDOWS\DIRECTX 3D\D3D_ORTHO\DEBUG\D3D_ORTHOGRAPHIC_TRIANGLE.LIB" /MACHINE:X86 DEBUG\D3D_ORTHO_TRIANGLE.OBJ
^E:\PROGRAMS\OPENGL\WINDOWS\DIRECTX 3D\D3D_PERSPECTIVE\D3D_BLUESCREEN\DEBUG\D3D_ORTHO_TRIANGLE.OBJ
/OUT:"E:\PROGRAMS\OPENGL\WINDOWS\DIRECTX 3D\D3D_PERSPECTIVE\DEBUG\D3D_ORTHOGRAPHIC_TRIANGLE.EXE" /INCREMENTAL /NOLOGO KERNEL32.LIB USER32.LIB GDI32.LIB WINSPOOL.LIB COMDLG32.LIB ADVAPI32.LIB SHELL32.LIB OLE32.LIB OLEAUT32.LIB UUID.LIB ODBC32.LIB ODBCCP32.LIB /MANIFEST /MANIFESTUAC:"level='asInvoker' uiAccess='false'" /manifest:embed /DEBUG /PDB:"E:\PROGRAMS\OPENGL\WINDOWS\DIRECTX 3D\D3D_PERSPECTIVE\DEBUG\D3D_ORTHOGRAPHIC_TRIANGLE.PDB" /SUBSYSTEM:WINDOWS /TLBID:1 /DYNAMICBASE /NXCOMPAT /IMPLIB:"E:\PROGRAMS\OPENGL\WINDOWS\DIRECTX 3D\D3D_PERSPECTIVE\DEBUG\D3D_ORTHOGRAPHIC_TRIANGLE.LIB" /MACHINE:X86 DEBUG\D3D_ORTHO_TRIANGLE.OBJ
^E:\PROGRAMS\OPENGL\WINDOWS\DIRECTX 3D\2DCOLOR\D3D_BLUESCREEN\DEBUG\2DCOLOREDSHAPES.OBJ
/OUT:"E:\PROGRAMS\OPENGL\WINDOWS\DIRECTX 3D\2DCOLOR\DEBUG\D3D_ORTHOGRAPHIC_TRIANGLE.EXE" /INCREMENTAL /NOLOGO KERNEL32.LIB USER32.LIB GDI32.LIB WINSPOOL.LIB COMDLG32.LIB ADVAPI32.LIB SHELL32.LIB OLE32.LIB OLEAUT32.LIB UUID.LIB ODBC32.LIB ODBCCP32.LIB /MANIFEST /MANIFESTUAC:"level='asInvoker' uiAccess='false'" /manifest:embed /DEBUG /PDB:"E:\PROGRAMS\OPENGL\WINDOWS\DIRECTX 3D\2DCOLOR\DEBUG\D3D_ORTHOGRAPHIC_TRIANGLE.PDB" /SUBSYSTEM:WINDOWS /TLBID:1 /DYNAMICBASE /NXCOMPAT /IMPLIB:"E:\PROGRAMS\OPENGL\WINDOWS\DIRECTX 3D\2DCOLOR\DEBUG\D3D_ORTHOGRAPHIC_TRIANGLE.LIB" /MACHINE:X86 DEBUG\2DCOLOREDSHAPES.OBJ
^E:\PROGRAMS\OPENGL\WINDOWS\DIRECTX 3D\2DROTATION\D3D_BLUESCREEN\DEBUG\2DCOLOREDSHAPES.OBJ
/OUT:"E:\PROGRAMS\OPENGL\WINDOWS\DIRECTX 3D\2DROTATION\DEBUG\D3D_ORTHOGRAPHIC_TRIANGLE.EXE" /INCREMENTAL /NOLOGO KERNEL32.LIB USER32.LIB GDI32.LIB WINSPOOL.LIB COMDLG32.LIB ADVAPI32.LIB SHELL32.LIB OLE32.LIB OLEAUT32.LIB UUID.LIB ODBC32.LIB ODBCCP32.LIB /MANIFEST /MANIFESTUAC:"level='asInvoker' uiAccess='false'" /manifest:embed /DEBUG /PDB:"E:\PROGRAMS\OPENGL\WINDOWS\DIRECTX 3D\2DROTATION\DEBUG\D3D_ORTHOGRAPHIC_TRIANGLE.PDB" /SUBSYSTEM:WINDOWS /TLBID:1 /DYNAMICBASE /NXCOMPAT /IMPLIB:"E:\PROGRAMS\OPENGL\WINDOWS\DIRECTX 3D\2DROTATION\DEBUG\D3D_ORTHOGRAPHIC_TRIANGLE.LIB" /MACHINE:X86 DEBUG\2DCOLOREDSHAPES.OBJ
