^E:\PROGRAMS\OPENGL\WINDOWS\DIRECTX 3D\D3D_ORTHO\D3D_BLUESCREEN\DEBUG\D3D_ORTHO_TRIANGLE.OBJ
E:\PROGRAMS\OPENGL\WINDOWS\DIRECTX 3D\D3D_ORTHO\DEBUG\D3D_ORTHOGRAPHIC_TRIANGLE.ILK
E:\PROGRAMS\OPENGL\WINDOWS\DIRECTX 3D\D3D_ORTHO\DEBUG\D3D_ORTHOGRAPHIC_TRIANGLE.EXE
E:\PROGRAMS\OPENGL\WINDOWS\DIRECTX 3D\D3D_ORTHO\DEBUG\D3D_ORTHOGRAPHIC_TRIANGLE.PDB
^E:\PROGRAMS\OPENGL\WINDOWS\DIRECTX 3D\D3D_PERSPECTIVE\D3D_BLUESCREEN\DEBUG\D3D_ORTHO_TRIANGLE.OBJ
E:\PROGRAMS\OPENGL\WINDOWS\DIRECTX 3D\D3D_PERSPECTIVE\DEBUG\D3D_ORTHOGRAPHIC_TRIANGLE.ILK
E:\PROGRAMS\OPENGL\WINDOWS\DIRECTX 3D\D3D_PERSPECTIVE\DEBUG\D3D_ORTHOGRAPHIC_TRIANGLE.EXE
E:\PROGRAMS\OPENGL\WINDOWS\DIRECTX 3D\D3D_PERSPECTIVE\DEBUG\D3D_ORTHOGRAPHIC_TRIANGLE.PDB
^E:\PROGRAMS\OPENGL\WINDOWS\DIRECTX 3D\2DCOLOR\D3D_BLUESCREEN\DEBUG\2DCOLOREDSHAPES.OBJ
E:\PROGRAMS\OPENGL\WINDOWS\DIRECTX 3D\2DCOLOR\DEBUG\D3D_ORTHOGRAPHIC_TRIANGLE.ILK
E:\PROGRAMS\OPENGL\WINDOWS\DIRECTX 3D\2DCOLOR\DEBUG\D3D_ORTHOGRAPHIC_TRIANGLE.EXE
E:\PROGRAMS\OPENGL\WINDOWS\DIRECTX 3D\2DCOLOR\DEBUG\D3D_ORTHOGRAPHIC_TRIANGLE.PDB
^E:\PROGRAMS\OPENGL\WINDOWS\DIRECTX 3D\2DROTATION\D3D_BLUESCREEN\DEBUG\2DCOLOREDSHAPES.OBJ
E:\PROGRAMS\OPENGL\WINDOWS\DIRECTX 3D\2DROTATION\DEBUG\D3D_ORTHOGRAPHIC_TRIANGLE.ILK
E:\PROGRAMS\OPENGL\WINDOWS\DIRECTX 3D\2DROTATION\DEBUG\D3D_ORTHOGRAPHIC_TRIANGLE.EXE
E:\PROGRAMS\OPENGL\WINDOWS\DIRECTX 3D\2DROTATION\DEBUG\D3D_ORTHOGRAPHIC_TRIANGLE.PDB
