^E:\PROGRAMS\OPENGL\WINDOWS\DIRECTX 3D\LIGHTS\2LIGHTS\D3D_BLUESCREEN\2_LIGHTS.CPP
E:\PROGRAMS\OPENGL\WINDOWS\DIRECTX 3D\LIGHTS\2LIGHTS\D3D_BLUESCREEN\DEBUG\VC140.PDB
E:\PROGRAMS\OPENGL\WINDOWS\DIRECTX 3D\LIGHTS\2LIGHTS\D3D_BLUESCREEN\DEBUG\VC140.IDB
E:\PROGRAMS\OPENGL\WINDOWS\DIRECTX 3D\LIGHTS\2LIGHTS\D3D_BLUESCREEN\DEBUG\2_LIGHTS.OBJ
