^E:\PROGRAMS\OPENGL\WINDOWS\DIRECTX 3D\D3D_ORTHO\D3D_BLUESCREEN\D3D_BLUESCREEN.CPP
/c /ZI /nologo /W3 /WX- /sdl /Od /Oy- /D WIN32 /D _DEBUG /D _WINDOWS /D _UNICODE /D UNICODE /Gm /EHsc /RTC1 /MDd /GS /fp:precise /Zc:wchar_t /Zc:forScope /Zc:inline /Fo"DEBUG\\" /Fd"DEBUG\VC140.PDB" /Gd /TP /analyze- E:\PROGRAMS\OPENGL\WINDOWS\DIRECTX 3D\D3D_ORTHO\D3D_BLUESCREEN\D3D_BLUESCREEN.CPP
^E:\PROGRAMS\OPENGL\WINDOWS\DIRECTX 3D\D3D_ORTHO\D3D_BLUESCREEN\D3D_ORTHO_TRIANGLE.CPP
/c /ZI /nologo /W3 /WX- /sdl /Od /Oy- /D WIN32 /D _DEBUG /D _WINDOWS /D _UNICODE /D UNICODE /Gm /EHsc /RTC1 /MDd /GS /fp:precise /Zc:wchar_t /Zc:forScope /Zc:inline /Fo"DEBUG\\" /Fd"DEBUG\VC140.PDB" /Gd /TP /analyze- E:\PROGRAMS\OPENGL\WINDOWS\DIRECTX 3D\D3D_ORTHO\D3D_BLUESCREEN\D3D_ORTHO_TRIANGLE.CPP
^E:\PROGRAMS\OPENGL\WINDOWS\DIRECTX 3D\D3D_PERSPECTIVE\D3D_BLUESCREEN\D3D_ORTHO_TRIANGLE.CPP
/c /ZI /nologo /W3 /WX- /sdl /Od /Oy- /D WIN32 /D _DEBUG /D _WINDOWS /D _UNICODE /D UNICODE /Gm /EHsc /RTC1 /MDd /GS /fp:precise /Zc:wchar_t /Zc:forScope /Zc:inline /Fo"DEBUG\\" /Fd"DEBUG\VC140.PDB" /Gd /TP /analyze- E:\PROGRAMS\OPENGL\WINDOWS\DIRECTX 3D\D3D_PERSPECTIVE\D3D_BLUESCREEN\D3D_ORTHO_TRIANGLE.CPP
^E:\PROGRAMS\OPENGL\WINDOWS\DIRECTX 3D\3DROTATION\D3D_BLUESCREEN\D3D_ORTHO_TRIANGLE.CPP
/c /ZI /nologo /W3 /WX- /sdl /Od /Oy- /D WIN32 /D _DEBUG /D _WINDOWS /D _UNICODE /D UNICODE /Gm /EHsc /RTC1 /MDd /GS /fp:precise /Zc:wchar_t /Zc:forScope /Zc:inline /Fo"DEBUG\\" /Fd"DEBUG\VC140.PDB" /Gd /TP /analyze- E:\PROGRAMS\OPENGL\WINDOWS\DIRECTX 3D\3DROTATION\D3D_BLUESCREEN\D3D_ORTHO_TRIANGLE.CPP
