^E:\PROGRAMS\OPENGL\WINDOWS\DIRECTX 3D\LIGHTS\2LIGHTS\D3D_BLUESCREEN\DEBUG\2_LIGHTS.OBJ
E:\PROGRAMS\OPENGL\WINDOWS\DIRECTX 3D\LIGHTS\2LIGHTS\DEBUG\2_LIGHTS.ILK
E:\PROGRAMS\OPENGL\WINDOWS\DIRECTX 3D\LIGHTS\2LIGHTS\DEBUG\2_LIGHTS.EXE
E:\PROGRAMS\OPENGL\WINDOWS\DIRECTX 3D\LIGHTS\2LIGHTS\DEBUG\2_LIGHTS.PDB
