^E:\PROGRAMS\OPENGL\WINDOWS\DIRECTX 3D\D3D_BLUESCREEN\D3D_BLUESCREEN\D3D_BLUESCREEN.CPP
E:\PROGRAMS\OPENGL\WINDOWS\DIRECTX 3D\D3D_BLUESCREEN\D3D_BLUESCREEN\DEBUG\VC140.PDB
E:\PROGRAMS\OPENGL\WINDOWS\DIRECTX 3D\D3D_BLUESCREEN\D3D_BLUESCREEN\DEBUG\VC140.IDB
E:\PROGRAMS\OPENGL\WINDOWS\DIRECTX 3D\D3D_BLUESCREEN\D3D_BLUESCREEN\DEBUG\D3D_BLUESCREEN.OBJ
