^E:\PROGRAMS\OPENGL\WINDOWS\DIRECTX 3D\TESELATIONSHADER\D3D_BLUESCREEN\TESELATION_SHADER.CPP
E:\PROGRAMS\OPENGL\WINDOWS\DIRECTX 3D\TESELATIONSHADER\D3D_BLUESCREEN\DEBUG\VC140.PDB
E:\PROGRAMS\OPENGL\WINDOWS\DIRECTX 3D\TESELATIONSHADER\D3D_BLUESCREEN\DEBUG\VC140.IDB
E:\PROGRAMS\OPENGL\WINDOWS\DIRECTX 3D\TESELATIONSHADER\D3D_BLUESCREEN\DEBUG\TESELATION_SHADER.OBJ
