^E:\PROGRAMS\OPENGL\WINDOWS\DIRECTX 3D\LIGHTS\DIFFUSEDLIGHT\D3D_BLUESCREEN\DIFFUSED_LIGHT.CPP
E:\PROGRAMS\OPENGL\WINDOWS\DIRECTX 3D\LIGHTS\DIFFUSEDLIGHT\D3D_BLUESCREEN\DEBUG\VC140.PDB
E:\PROGRAMS\OPENGL\WINDOWS\DIRECTX 3D\LIGHTS\DIFFUSEDLIGHT\D3D_BLUESCREEN\DEBUG\VC140.IDB
E:\PROGRAMS\OPENGL\WINDOWS\DIRECTX 3D\LIGHTS\DIFFUSEDLIGHT\D3D_BLUESCREEN\DEBUG\DIFFUSED_LIGHT.OBJ
