^E:\PROGRAMS\OPENGL\WINDOWS\DIRECTX 3D\LIGHTS\24 SPHERES\D3D_BLUESCREEN\24SPHERES.CPP
E:\PROGRAMS\OPENGL\WINDOWS\DIRECTX 3D\LIGHTS\24 SPHERES\D3D_BLUESCREEN\DEBUG\VC140.PDB
E:\PROGRAMS\OPENGL\WINDOWS\DIRECTX 3D\LIGHTS\24 SPHERES\D3D_BLUESCREEN\DEBUG\VC140.IDB
E:\PROGRAMS\OPENGL\WINDOWS\DIRECTX 3D\LIGHTS\24 SPHERES\D3D_BLUESCREEN\DEBUG\24SPHERES.OBJ
