^E:\PROGRAMS\OPENGL\WINDOWS\DIRECTX 3D\LIGHTS\3LIGHTS\D3D_BLUESCREEN\3_LIGHTS.CPP
/c /ZI /nologo /W3 /WX- /sdl /Od /Oy- /D WIN32 /D _DEBUG /D _WINDOWS /D _UNICODE /D UNICODE /Gm /EHsc /RTC1 /MDd /GS /fp:precise /Zc:wchar_t /Zc:forScope /Zc:inline /Fo"DEBUG\\" /Fd"DEBUG\VC140.PDB" /Gd /TP /analyze- E:\PROGRAMS\OPENGL\WINDOWS\DIRECTX 3D\LIGHTS\3LIGHTS\D3D_BLUESCREEN\3_LIGHTS.CPP
^E:\PROGRAMS\OPENGL\WINDOWS\DIRECTX 3D\LIGHTS\LIGHTOGGLING\D3D_BLUESCREEN\LIGHT_TOGGLING.CPP
/c /ZI /nologo /W3 /WX- /sdl /Od /Oy- /D WIN32 /D _DEBUG /D _WINDOWS /D _UNICODE /D UNICODE /Gm /EHsc /RTC1 /MDd /GS /fp:precise /Zc:wchar_t /Zc:forScope /Zc:inline /Fo"DEBUG\\" /Fd"DEBUG\VC140.PDB" /Gd /TP /analyze- E:\PROGRAMS\OPENGL\WINDOWS\DIRECTX 3D\LIGHTS\LIGHTOGGLING\D3D_BLUESCREEN\LIGHT_TOGGLING.CPP
