^E:\PROGRAMS\OPENGL\WINDOWS\DIRECTX 3D\TEXTURE\3D_TEXTURE\D3D_BLUESCREEN\DEBUG\3D_TEXTURE.OBJ
E:\PROGRAMS\OPENGL\WINDOWS\DIRECTX 3D\TEXTURE\3D_TEXTURE\DEBUG\3D_TEXTURE.ILK
E:\PROGRAMS\OPENGL\WINDOWS\DIRECTX 3D\TEXTURE\3D_TEXTURE\DEBUG\3D_TEXTURE.EXE
E:\PROGRAMS\OPENGL\WINDOWS\DIRECTX 3D\TEXTURE\3D_TEXTURE\DEBUG\3D_TEXTURE.PDB
